%YAML 1.1
%TAG !u! tag:unity3d.com,2011:
--- !u!1001 &6919001521332810388
PrefabInstance:
  m_ObjectHideFlags: 0
  serializedVersion: 2
  m_Modification:
    m_TransformParent: {fileID: 0}
    m_Modifications:
    - target: {fileID: 2678916964758497681, guid: b47a6f2664f78394baf59f55fdf05541,
        type: 3}
      propertyPath: m_Name
      value: Enemy
      objectReference: {fileID: 0}
    - target: {fileID: 2678916964758497681, guid: b47a6f2664f78394baf59f55fdf05541,
        type: 3}
      propertyPath: m_TagString
      value: Player
      objectReference: {fileID: 0}
    - target: {fileID: 2678916964758497681, guid: b47a6f2664f78394baf59f55fdf05541,
        type: 3}
      propertyPath: m_Layer
      value: 9
      objectReference: {fileID: 0}
    - target: {fileID: 2948312407220186159, guid: b47a6f2664f78394baf59f55fdf05541,
        type: 3}
      propertyPath: m_LocalPosition.x
      value: -4.02
      objectReference: {fileID: 0}
    - target: {fileID: 2948312407220186159, guid: b47a6f2664f78394baf59f55fdf05541,
        type: 3}
      propertyPath: m_LocalPosition.y
      value: 0
      objectReference: {fileID: 0}
    - target: {fileID: 2948312407220186159, guid: b47a6f2664f78394baf59f55fdf05541,
        type: 3}
      propertyPath: m_LocalPosition.z
      value: 0
      objectReference: {fileID: 0}
    - target: {fileID: 2948312407220186159, guid: b47a6f2664f78394baf59f55fdf05541,
        type: 3}
      propertyPath: m_LocalRotation.x
      value: -0
      objectReference: {fileID: 0}
    - target: {fileID: 2948312407220186159, guid: b47a6f2664f78394baf59f55fdf05541,
        type: 3}
      propertyPath: m_LocalRotation.y
      value: -0
      objectReference: {fileID: 0}
    - target: {fileID: 2948312407220186159, guid: b47a6f2664f78394baf59f55fdf05541,
        type: 3}
      propertyPath: m_LocalRotation.z
      value: -0
      objectReference: {fileID: 0}
    - target: {fileID: 2948312407220186159, guid: b47a6f2664f78394baf59f55fdf05541,
        type: 3}
      propertyPath: m_LocalRotation.w
      value: 1
      objectReference: {fileID: 0}
    - target: {fileID: 2948312407220186159, guid: b47a6f2664f78394baf59f55fdf05541,
        type: 3}
      propertyPath: m_RootOrder
      value: 0
      objectReference: {fileID: 0}
    - target: {fileID: 2948312407220186159, guid: b47a6f2664f78394baf59f55fdf05541,
        type: 3}
      propertyPath: m_LocalEulerAnglesHint.x
      value: 0
      objectReference: {fileID: 0}
    - target: {fileID: 2948312407220186159, guid: b47a6f2664f78394baf59f55fdf05541,
        type: 3}
      propertyPath: m_LocalEulerAnglesHint.y
      value: 0
      objectReference: {fileID: 0}
    - target: {fileID: 2948312407220186159, guid: b47a6f2664f78394baf59f55fdf05541,
        type: 3}
      propertyPath: m_LocalEulerAnglesHint.z
      value: 0
      objectReference: {fileID: 0}
    - target: {fileID: 9119866568733249766, guid: b47a6f2664f78394baf59f55fdf05541,
        type: 3}
      propertyPath: m_Layer
      value: 9
      objectReference: {fileID: 0}
    - target: {fileID: 4795563373336495190, guid: b47a6f2664f78394baf59f55fdf05541,
        type: 3}
      propertyPath: m_Layer
      value: 9
      objectReference: {fileID: 0}
    - target: {fileID: 5674006265679153431, guid: b47a6f2664f78394baf59f55fdf05541,
        type: 3}
      propertyPath: m_Color.r
      value: 1
      objectReference: {fileID: 0}
    - target: {fileID: 5674006265679153431, guid: b47a6f2664f78394baf59f55fdf05541,
        type: 3}
      propertyPath: m_Color.g
      value: 0.5694249
      objectReference: {fileID: 0}
    - target: {fileID: 5674006265679153431, guid: b47a6f2664f78394baf59f55fdf05541,
        type: 3}
      propertyPath: m_Color.b
      value: 0.5254902
      objectReference: {fileID: 0}
    m_RemovedComponents: []
  m_SourcePrefab: {fileID: 100100000, guid: b47a6f2664f78394baf59f55fdf05541, type: 3}
